 PTC IGES file: ruder_mit_skeg.igs                                      S      1
                                                                        S      2
1H,,1H;,,                                                               G      1
65HC:\Dokumente und Einstellungen\vshi\Desktop\DTC_gap_hull_prop.igs,   G      2
26HRhinoceros ( Mar  9 2011 ),31HTrout Lake IGES 012 Mar  9 2011,       G      3
32,38,6,308,15,                                                         G      4
,                                                                       G      5
1.0D0,6,1HM,1,0.000254D0,13H130104.162300,                              G      6
0.001D0,                                                                G      7
10D0,                                                                   G      8
,                                                                       G      9
,                                                                       G     10
10,0,13H130104.162300;                                                  G     11
     314       1       0       0       0       0       0       000000200D      1
     314       0       1       1       0       0       0   COLOR       0D      2
     314       2       0       0       0       0       0       000000200D      3
     314       0       1       1       0       0       0   COLOR       0D      4
     406       3       0       0       1       0       0       000000300D      5
     406       0      -1       1       3       0       0LEVELDEF       0D      6
     406       4       0       0       2       0       0       000000300D      7
     406       0      -3       1       3       0       0LEVELDEF       0D      8
     128       5       0       0       1       0       0       000000000D      9
     128       0      -1      42       0       0       0   Shell       1D     10
     128      47       0       0       1       0       0       000000000D     11
     128       0      -1      42       0       0       0   Shell       2D     12
     128      89       0       0       1       0       0       000000000D     13
     128       0      -1      41       0       0       0   Shell       3D     14
     128     130       0       0       1       0       0       000000000D     15
     128       0      -1      41       0       0       0   Shell       4D     16
314,0.0,0.0,0.0,20HRGB(   0,   0,   0 );                         0000001P      1
314,24.70588,24.70588,24.70588,20HRGB(  63,  63,  63 );          0000003P      2
406,2,1,8HStandard;                                              0000005P      3
406,2,2,12HIGES level 0;                                         0000007P      4
128,6,3,3,3,0,0,0,0,0,26.31377935579134D0,26.31377935579134D0,   0000009P      5
26.31377935579134D0,26.31377935579134D0,27.09917770182233D0,     0000009P      6
27.09917770182233D0,27.09917770182233D0,27.88457568258627D0,     0000009P      7
27.88457568258627D0,27.88457568258627D0,27.88457568258627D0,     0000009P      8
0.0D0,0.0D0,0.0D0,0.0D0,0.2610031571094941D0,                    0000009P      9
0.2610031571094941D0,0.2610031571094941D0,0.2610031571094941D0,  0000009P     10
1.0D0,0.9023689043594178D0,0.8535533678905096D0,                 0000009P     11
0.8535533905932757D0,0.8535534132960312D0,0.9023689497649393D0,  0000009P     12
1.0D0,1.0D0,0.9349126029062785D0,0.9023689119270064D0,           0000009P     13
0.9023689270621839D0,0.9023689421973541D0,0.9349126331766262D0,  0000009P     14
1.0D0,1.0D0,0.9674563014531392D0,0.9511844559635032D0,           0000009P     15
0.9511844635310919D0,0.9511844710986771D0,0.9674563165883131D0,  0000009P     16
1.0D0,1.0D0,1.0D0,1.0D0,1.0D0,1.0D0,1.0D0,1.0D0,                 0000009P     17
9.739785057531449D0,1.97012896591217D-16,4.16874178142326D0,     0000009P     18
9.739785057531451D0,-0.2176684591786789D0,4.168741781423253D0,   0000009P     19
9.739785057531451D0,-0.4265343737180943D0,4.250100490935266D0,   0000009P     20
9.739785057531449D0,-0.5892517235586816D0,4.412817903467377D0,   0000009P     21
9.739785057531448D0,-0.7519689890680434D0,4.57553523166823D0,    0000009P     22
9.739785057531448D0,-0.8333276185767672D0,4.784401053005564D0,   0000009P     23
9.739785057531449D0,-0.8333276185767674D0,5.0020694D0,           0000009P     24
9.826523371687634D0,-6.449558116797737D-09,4.162494552615507D0,  0000009P     25
9.832561980087149D0,-0.2194016053037521D0,4.162059628686911D0,   0000009P     26
9.835907954729841D0,-0.4328711300919425D0,4.246963057072996D0,   0000009P     27
9.835907953117598D0,-0.5936066224209093D0,4.407698560278057D0,   0000009P     28
9.835907951505357D0,-0.7543420120418424D0,4.568433909576553D0,   0000009P     29
9.832561977083241D0,-0.8392719905004423D0,4.78192990971871D0,    0000009P     30
9.826523371687634D0,-0.8388850869845116D0,5.0013796D0,           0000009P     31
9.913261685843816D0,-1.289911643060837D-08,4.156247323807754D0,  0000009P     32
9.919097165015584D0,-0.2210181508444944D0,4.155827030031656D0,   0000009P     33
9.922164644608117D0,-0.438557471695287D0,4.244147654421194D0,    0000009P     34
9.92216464315711D0,-0.5975145275981513D0,4.403104674544649D0,    0000009P     35
9.922164641706106D0,-0.7564714642360905D0,4.562061478261243D0,   0000009P     36
9.91909716221037D0,-0.8448164440926155D0,4.779625017048887D0,    0000009P     37
9.913261685843816D0,-0.8444425553922557D0,5.0006898D0,10.0D0,    0000009P     38
-1.9348674744419D-08,4.150000095000001D0,10.0D0,                 0000009P     39
-0.2225294796437062D0,4.150000095D0,10.0D0,                      0000009P     40
-0.4436886495807421D0,4.241607122593649D0,10.0D0,                0000009P     41
-0.6010408997999999D0,4.398959294804348D0,10.0D0,                0000009P     42
-0.7583930157600741D0,4.556311194156021D0,10.0D0,                0000009P     43
-0.8500000238D0,4.777470143773754D0,10.0D0,                      0000009P     44
-0.8500000237999998D0,5.0D0,26.31377935579134D0,                 0000009P     45
27.88457568258627D0,0.0D0,0.2610031571094941D0;                  0000009P     46
128,6,3,3,3,0,0,0,0,0,24.74298302899641D0,24.74298302899641D0,   0000011P     47
24.74298302899641D0,24.74298302899641D0,25.52838100976035D0,     0000011P     48
25.52838100976035D0,25.52838100976035D0,26.31377935579134D0,     0000011P     49
26.31377935579134D0,26.31377935579134D0,26.31377935579134D0,     0000011P     50
0.0D0,0.0D0,0.0D0,0.0D0,0.2610031571094941D0,                    0000011P     51
0.2610031571094941D0,0.2610031571094941D0,0.2610031571094941D0,  0000011P     52
1.0D0,0.9023689497649404D0,0.8535534132960324D0,                 0000011P     53
0.8535533905932761D0,0.8535533678905092D0,0.9023689043594171D0,  0000011P     54
1.0D0,1.0D0,0.934912633176627D0,0.902368942197355D0,             0000011P     55
0.9023689270621841D0,0.9023689119270061D0,0.9349126029062781D0,  0000011P     56
1.0D0,1.0D0,0.9674563165883134D0,0.9511844710986774D0,           0000011P     57
0.951184463531092D0,0.9511844559635031D0,0.967456301453139D0,    0000011P     58
1.0D0,1.0D0,1.0D0,1.0D0,1.0D0,1.0D0,1.0D0,1.0D0,                 0000011P     59
9.739785057531449D0,0.8333276185767674D0,5.0020694D0,            0000011P     60
9.739785057531448D0,0.8333276185767671D0,4.784401053005567D0,    0000011P     61
9.739785057531448D0,0.7519689890680447D0,4.575535231668233D0,    0000011P     62
9.739785057531448D0,0.5892517235586858D0,4.412817903467381D0,    0000011P     63
9.739785057531448D0,0.4265343737180982D0,4.250100490935266D0,    0000011P     64
9.739785057531449D0,0.2176684591786814D0,4.168741781423252D0,    0000011P     65
9.739785057531449D0,1.97012896591217D-16,4.16874178142326D0,     0000011P     66
9.826523371687634D0,0.8388850869845116D0,5.0013796D0,            0000011P     67
9.832561977083241D0,0.8392719905004421D0,4.781929909718712D0,    0000011P     68
9.835907951505355D0,0.7543420120418432D0,4.568433909576554D0,    0000011P     69
9.835907953117598D0,0.5936066224209119D0,4.407698560278059D0,    0000011P     70
9.835907954729839D0,0.4328711300919449D0,4.246963057072996D0,    0000011P     71
9.832561980087148D0,0.2194016053037536D0,4.16205962868691D0,     0000011P     72
9.826523371687634D0,-6.449558116797737D-09,4.162494552615507D0,  0000011P     73
9.913261685843816D0,0.8444425553922557D0,5.0006898D0,            0000011P     74
9.91909716221037D0,0.8448164440926157D0,4.779625017048888D0,     0000011P     75
9.922164641706106D0,0.7564714642360908D0,4.562061478261244D0,    0000011P     76
9.92216464315711D0,0.5975145275981526D0,4.403104674544649D0,     0000011P     77
9.922164644608115D0,0.4385574716952881D0,4.244147654421193D0,    0000011P     78
9.919097165015582D0,0.2210181508444951D0,4.155827030031656D0,    0000011P     79
9.913261685843816D0,-1.289911643060837D-08,4.156247323807754D0,  0000011P     80
10.0D0,0.8500000237999998D0,5.0D0,10.0D0,0.8500000238D0,         0000011P     81
4.777470143773754D0,10.0D0,0.7583930157600741D0,                 0000011P     82
4.556311194156021D0,10.0D0,0.6010408997999999D0,                 0000011P     83
4.398959294804348D0,10.0D0,0.4436886495807421D0,                 0000011P     84
4.241607122593649D0,10.0D0,0.2225294796437062D0,4.150000095D0,   0000011P     85
10.0D0,-1.9348674744419D-08,4.150000095000001D0,                 0000011P     86
24.74298302899641D0,26.31377935579134D0,0.0D0,                   0000011P     87
0.2610031571094941D0;                                            0000011P     88
128,6,3,3,3,0,0,0,0,0,23.17218670220148D0,23.17218670220148D0,   0000013P     89
23.17218670220148D0,23.17218670220148D0,23.95758457996589D0,     0000013P     90
23.95758457996589D0,23.95758457996589D0,24.74298302899641D0,     0000013P     91
24.74298302899641D0,24.74298302899641D0,24.74298302899641D0,     0000013P     92
0.0D0,0.0D0,0.0D0,0.0D0,0.2610031571094941D0,                    0000013P     93
0.2610031571094941D0,0.2610031571094941D0,0.2610031571094941D0,  0000013P     94
1.0D0,0.9023689625685799D0,0.8535534260996757D0,                 0000013P     95
0.8535533905932874D0,0.8535533550868732D0,0.9023688915557775D0,  0000013P     96
1.0D0,1.0D0,0.9349126417123866D0,0.9023689507331171D0,           0000013P     97
0.9023689270621916D0,0.9023689033912489D0,0.9349125943705183D0,  0000013P     98
1.0D0,1.0D0,0.9674563208561933D0,0.9511844753665586D0,           0000013P     99
0.9511844635310958D0,0.9511844516956244D0,0.9674562971852592D0,  0000013P    100
1.0D0,1.0D0,1.0D0,1.0D0,1.0D0,1.0D0,1.0D0,1.0D0,                 0000013P    101
9.739785057531449D0,5.527004409485314D-17,5.83539701857674D0,    0000013P    102
9.739785057531449D0,0.2176683153602509D0,5.835397018576748D0,    0000013P    103
9.739785057531449D0,0.4265341104160708D0,5.754038411627689D0,    0000013P    104
9.739785057531449D0,0.5892514325148518D0,5.59132118757642D0,     0000013P    105
9.739785057531448D0,0.751968886505073D0,5.42860383163379D0,      0000013P    106
9.739785057531448D0,0.8333276185767672D0,5.219737890812865D0,    0000013P    107
9.739785057531449D0,0.8333276185767674D0,5.0020694D0,            0000013P    108
9.826523371687634D0,3.684669606323543D-17,5.840264647384493D0,   0000013P    109
9.832561976236187D0,0.2194014969618076D0,5.840603510562096D0,    0000013P    110
9.835907950596104D0,0.4328708818266175D0,5.755646905302931D0,    0000013P    111
9.835907953117598D0,0.5936063067544193D0,5.594911608350039D0,    0000013P    112
9.835907955639092D0,0.75434182772338D0,5.434176215356056D0,      0000013P    113
9.832561980934203D0,0.8392719907471797D0,5.220733178216895D0,    0000013P    114
9.826523371687634D0,0.8388850869845116D0,5.0013796D0,            0000013P    115
9.913261685843816D0,1.842334803161772D-17,5.845132276192246D0,   0000013P    116
9.919097161419346D0,0.221018075664147D0,5.84545972646576D0,      0000013P    117
9.922164640887784D0,0.4385572371950631D0,5.75709030069354D0,     0000013P    118
9.922164643157108D0,0.5975141898363101D0,5.598133502674937D0,    0000013P    119
9.922164645426436D0,0.7564712064518691D0,5.439176640682073D0,    0000013P    120
9.919097165806607D0,0.8448164443230325D0,5.221661505826281D0,    0000013P    121
9.913261685843816D0,0.8444425553922557D0,5.0006898D0,10.0D0,     0000013P    122
0.0D0,5.849999905D0,10.0D0,0.2225294355292871D0,                 0000013P    123
5.84999986410498D0,10.0D0,0.4436884277223829D0,                  0000013P    124
5.758392775877657D0,10.0D0,0.6010405421D0,5.60104084D0,10.0D0,   0000013P    125
0.7583926916D0,5.443688869D0,10.0D0,0.8500000238D0,              0000013P    126
5.222529411D0,10.0D0,0.8500000237999998D0,5.0D0,                 0000013P    127
23.17218670220148D0,24.74298302899641D0,0.0D0,                   0000013P    128
0.2610031571094941D0;                                            0000013P    129
128,6,3,3,3,0,0,0,0,0,27.88457568258627D0,27.88457568258627D0,   0000015P    130
27.88457568258627D0,27.88457568258627D0,28.66997413161679D0,     0000015P    131
28.66997413161679D0,28.66997413161679D0,29.45537200938119D0,     0000015P    132
29.45537200938119D0,29.45537200938119D0,29.45537200938119D0,     0000015P    133
0.0D0,0.0D0,0.0D0,0.0D0,0.2610031571094941D0,                    0000015P    134
0.2610031571094941D0,0.2610031571094941D0,0.2610031571094941D0,  0000015P    135
1.0D0,0.902368891555778D0,0.8535533550868738D0,                  0000015P    136
0.8535533905932873D0,0.853553426099675D0,0.9023689625685792D0,   0000015P    137
1.0D0,1.0D0,0.9349125943705187D0,0.9023689033912492D0,           0000015P    138
0.9023689270621915D0,0.9023689507331166D0,0.9349126417123862D0,  0000015P    139
1.0D0,1.0D0,0.9674562971852594D0,0.9511844516956246D0,           0000015P    140
0.9511844635310958D0,0.9511844753665584D0,0.967456320856193D0,   0000015P    141
1.0D0,1.0D0,1.0D0,1.0D0,1.0D0,1.0D0,1.0D0,1.0D0,                 0000015P    142
9.739785057531449D0,-0.8333276185767674D0,5.0020694D0,           0000015P    143
9.739785057531449D0,-0.8333276185767673D0,5.219737890812865D0,   0000015P    144
9.739785057531451D0,-0.7519688865050741D0,5.428603831633788D0,   0000015P    145
9.739785057531451D0,-0.5892514325148551D0,5.591321187576416D0,   0000015P    146
9.739785057531449D0,-0.4265341104160737D0,5.754038411627687D0,   0000015P    147
9.739785057531449D0,-0.2176683153602524D0,5.835397018576747D0,   0000015P    148
9.739785057531449D0,5.527004409485314D-17,5.83539701857674D0,    0000015P    149
9.826523371687634D0,-0.8388850869845116D0,5.0013796D0,           0000015P    150
9.832561980934203D0,-0.8392719907471798D0,5.220733178216894D0,   0000015P    151
9.835907955639094D0,-0.7543418277233808D0,5.434176215356055D0,   0000015P    152
9.835907953117598D0,-0.5936063067544215D0,5.594911608350038D0,   0000015P    153
9.835907950596104D0,-0.4328708818266194D0,5.755646905302931D0,   0000015P    154
9.832561976236189D0,-0.2194014969618087D0,5.840603510562097D0,   0000015P    155
9.826523371687634D0,3.684669606323543D-17,5.840264647384493D0,   0000015P    156
9.913261685843816D0,-0.8444425553922557D0,5.0006898D0,           0000015P    157
9.919097165806608D0,-0.8448164443230325D0,5.221661505826281D0,   0000015P    158
9.922164645426436D0,-0.7564712064518693D0,5.439176640682073D0,   0000015P    159
9.922164643157108D0,-0.597514189836311D0,5.598133502674935D0,    0000015P    160
9.922164640887784D0,-0.4385572371950639D0,5.757090300693539D0,   0000015P    161
9.919097161419344D0,-0.2210180756641475D0,5.84545972646576D0,    0000015P    162
9.913261685843816D0,1.842334803161772D-17,5.845132276192246D0,   0000015P    163
10.0D0,-0.8500000237999998D0,5.0D0,10.0D0,-0.8500000238D0,       0000015P    164
5.222529411D0,10.0D0,-0.7583926916D0,5.443688869D0,10.0D0,       0000015P    165
-0.6010405421D0,5.60104084D0,10.0D0,-0.4436884277223829D0,       0000015P    166
5.758392775877657D0,10.0D0,-0.2225294355292871D0,                0000015P    167
5.84999986410498D0,10.0D0,0.0D0,5.849999905D0,                   0000015P    168
27.88457568258627D0,29.45537200938119D0,0.0D0,                   0000015P    169
0.2610031571094941D0;                                            0000015P    170
S0000002G0000011D0000016P0000170                                        T      1
